gcc -g -Wall -Wextra -I/usr/include -I/usr/local/include -DDEFAULT_COLOR_MODE=1    gcmap.c   -o gcmap
In file included from gcmap.c:28:
general.h:84:12: warning: inline function ‘is_power_of_two’ declared but never defined
   84 | inline int is_power_of_two (usig32 a);
      |            ^~~~~~~~~~~~~~~
gcc -g -Wall -Wextra -I/usr/include -I/usr/local/include -DDEFAULT_COLOR_MODE=1   -c -o general.o general.c
general.c: In function ‘create_dir’:
general.c:247:23: warning: ‘sprintf’ may write a terminating nul past the end of the destination [-Wformat-overflow=]
  247 |  sprintf (buff, "%s/%s", home_dir, name);
      |                       ^
general.c:247:2: note: ‘sprintf’ output 2 or more bytes (assuming 1025) into a destination of size 1024
  247 |  sprintf (buff, "%s/%s", home_dir, name);
      |  ^~~~~~~~~~~~~~~~~~~~~~~~~~~~~~~~~~~~~~~
gcc -g -Wall -Wextra -I/usr/include -I/usr/local/include -DDEFAULT_COLOR_MODE=1 bin2dol.c general.o -o bin2dol
In file included from diskio.h:12,
                 from bin2dol.c:29:
mem.h:222:14: warning: inline function ‘mem_read32_safe’ declared but never defined
  222 | inline usig32 mem_read32_safe (usig32 addr);
      |              ^~~~~~~~~~~~~~~
mem.h:221:13: warning: inline function ‘mem_read8_safe’ declared but never defined
  221 | inline usig8 mem_read8_safe (usig32 addr);
      |             ^~~~~~~~~~~~~~
In file included from hw_gx.h:10,
                 from mem.h:15,
                 from diskio.h:12,
                 from bin2dol.c:29:
gx_transform.h:15:14: warning: inline function ‘color_unpack_ia8’ declared but never defined
   15 | inline usig32 color_unpack_ia8 (usig32 X);
      |              ^~~~~~~~~~~~~~~~
gx_transform.h:14:14: warning: inline function ‘color_unpack_ia4’ declared but never defined
   14 | inline usig32 color_unpack_ia4 (usig32 X);
      |              ^~~~~~~~~~~~~~~~
gx_transform.h:13:14: warning: inline function ‘color_unpack_i8’ declared but never defined
   13 | inline usig32 color_unpack_i8 (usig32 X);
      |              ^~~~~~~~~~~~~~~
gx_transform.h:12:14: warning: inline function ‘color_unpack_i4’ declared but never defined
   12 | inline usig32 color_unpack_i4 (usig32 X);
      |              ^~~~~~~~~~~~~~~
gx_transform.h:11:14: warning: inline function ‘color_unpack_rgb5a3’ declared but never defined
   11 | inline usig32 color_unpack_rgb5a3 (usig32 X);
      |              ^~~~~~~~~~~~~~~~~~~
gx_transform.h:10:14: warning: inline function ‘color_unpack_rgb4a3’ declared but never defined
   10 | inline usig32 color_unpack_rgb4a3 (usig32 X);
      |              ^~~~~~~~~~~~~~~~~~~
gx_transform.h:9:14: warning: inline function ‘color_unpack_rgb555’ declared but never defined
    9 | inline usig32 color_unpack_rgb555 (usig32 X);
      |              ^~~~~~~~~~~~~~~~~~~
gx_transform.h:8:14: warning: inline function ‘color_unpack_rgba6’ declared but never defined
    8 | inline usig32 color_unpack_rgba6 (usig32 X);
      |              ^~~~~~~~~~~~~~~~~~
gx_transform.h:7:14: warning: inline function ‘color_unpack_rgba4’ declared but never defined
    7 | inline usig32 color_unpack_rgba4 (usig32 X);
      |              ^~~~~~~~~~~~~~~~~~
gx_transform.h:6:14: warning: inline function ‘color_unpack_rgb565’ declared but never defined
    6 | inline usig32 color_unpack_rgb565 (usig32 X);
      |              ^~~~~~~~~~~~~~~~~~~
In file included from bin2dol.c:28:
general.h:84:12: warning: inline function ‘is_power_of_two’ declared but never defined
   84 | inline int is_power_of_two (usig32 a);
      |            ^~~~~~~~~~~~~~~
gcc -g -Wall -Wextra -I/usr/include -I/usr/local/include -DDEFAULT_COLOR_MODE=1   -c -o tplx.o tplx.c
tplx.c: In function ‘gx_convert_texture_i4_rgba’:
tplx.c:257:75: warning: unused parameter ‘tlut’ [-Wunused-parameter]
  257 | void gx_convert_texture_i4_rgba (usig8 *src, int width, int height, usig16 *tlut, int format)
      |                                                                    ~~~~~~~^~~~
tplx.c:257:85: warning: unused parameter ‘format’ [-Wunused-parameter]
  257 | void gx_convert_texture_i4_rgba (usig8 *src, int width, int height, usig16 *tlut, int format)
      |                                                                                 ~~~~^~~~~~
tplx.c: In function ‘gx_convert_texture_i8_rgba’:
tplx.c:295:75: warning: unused parameter ‘tlut’ [-Wunused-parameter]
  295 | void gx_convert_texture_i8_rgba (usig8 *src, int width, int height, usig16 *tlut, int format)
      |                                                                    ~~~~~~~^~~~
tplx.c:295:85: warning: unused parameter ‘format’ [-Wunused-parameter]
  295 | void gx_convert_texture_i8_rgba (usig8 *src, int width, int height, usig16 *tlut, int format)
      |                                                                                 ~~~~^~~~~~
tplx.c: In function ‘gx_convert_texture_ia4_rgba’:
tplx.c:331:76: warning: unused parameter ‘tlut’ [-Wunused-parameter]
  331 | void gx_convert_texture_ia4_rgba (usig8 *src, int width, int height, usig16 *tlut, int format)
      |                                                                     ~~~~~~~^~~~
tplx.c:331:86: warning: unused parameter ‘format’ [-Wunused-parameter]
  331 | void gx_convert_texture_ia4_rgba (usig8 *src, int width, int height, usig16 *tlut, int format)
      |                                                                                  ~~~~^~~~~~
tplx.c: In function ‘gx_convert_texture_ia8_rgba’:
tplx.c:367:77: warning: unused parameter ‘tlut’ [-Wunused-parameter]
  367 | void gx_convert_texture_ia8_rgba (usig8 *data, int width, int height, usig16 *tlut, int format)
      |                                                                      ~~~~~~~^~~~
tplx.c:367:87: warning: unused parameter ‘format’ [-Wunused-parameter]
  367 | void gx_convert_texture_ia8_rgba (usig8 *data, int width, int height, usig16 *tlut, int format)
      |                                                                                   ~~~~^~~~~~
tplx.c: In function ‘gx_convert_texture_rgb565_rgba’:
tplx.c:404:80: warning: unused parameter ‘tlut’ [-Wunused-parameter]
  404 | void gx_convert_texture_rgb565_rgba (usig8 *data, int width, int height, usig16 *tlut, int format)
      |                                                                         ~~~~~~~^~~~
tplx.c:404:90: warning: unused parameter ‘format’ [-Wunused-parameter]
  404 | void gx_convert_texture_rgb565_rgba (usig8 *data, int width, int height, usig16 *tlut, int format)
      |                                                                                      ~~~~^~~~~~
tplx.c: In function ‘gx_convert_texture_rgb5a3_rgba’:
tplx.c:441:80: warning: unused parameter ‘tlut’ [-Wunused-parameter]
  441 | void gx_convert_texture_rgb5a3_rgba (usig8 *data, int width, int height, usig16 *tlut, int format)
      |                                                                         ~~~~~~~^~~~
tplx.c:441:90: warning: unused parameter ‘format’ [-Wunused-parameter]
  441 | void gx_convert_texture_rgb5a3_rgba (usig8 *data, int width, int height, usig16 *tlut, int format)
      |                                                                                      ~~~~^~~~~~
tplx.c: In function ‘gx_convert_texture_rgba8_rgba’:
tplx.c:478:79: warning: unused parameter ‘tlut’ [-Wunused-parameter]
  478 | void gx_convert_texture_rgba8_rgba (usig8 *data, int width, int height, usig16 *tlut, int format)
      |                                                                        ~~~~~~~^~~~
tplx.c:478:89: warning: unused parameter ‘format’ [-Wunused-parameter]
  478 | void gx_convert_texture_rgba8_rgba (usig8 *data, int width, int height, usig16 *tlut, int format)
      |                                                                                     ~~~~^~~~~~
tplx.c: In function ‘gx_convert_texture_cmp_rgba’:
tplx.c:656:77: warning: unused parameter ‘tlut’ [-Wunused-parameter]
  656 | void gx_convert_texture_cmp_rgba (usig8 *data, int width, int height, usig16 *tlut, int format)
      |                                                                      ~~~~~~~^~~~
tplx.c:656:87: warning: unused parameter ‘format’ [-Wunused-parameter]
  656 | void gx_convert_texture_cmp_rgba (usig8 *data, int width, int height, usig16 *tlut, int format)
      |                                                                                   ~~~~^~~~~~
tplx.c: In function ‘gx_convert_tex’:
tplx.c:750:9: warning: pointer targets in returning ‘usig8 *’ {aka ‘unsigned char *’} from a function with return type ‘char *’ differ in signedness [-Wpointer-sign]
  750 |  return texbuff;
      |         ^~~~~~~
In file included from tplx.c:28:
tplx.c: At top level:
general.h:84:12: warning: inline function ‘is_power_of_two’ declared but never defined
   84 | inline int is_power_of_two (usig32 a);
      |            ^~~~~~~~~~~~~~~
gcc -g -Wall -Wextra -I/usr/include -I/usr/local/include -DDEFAULT_COLOR_MODE=1 tplx.o general.o -o tplx
/usr/bin/ld: tplx.o: in function `gx_convert_texture_i4_rgba':
/home/mrhan/projects/gcube/tplx.c:273: undefined reference to `color_unpack_i4'
/usr/bin/ld: /home/mrhan/projects/gcube/tplx.c:275: undefined reference to `color_unpack_i4'
/usr/bin/ld: tplx.o: in function `gx_convert_texture_i8_rgba':
/home/mrhan/projects/gcube/tplx.c:311: undefined reference to `color_unpack_i8'
/usr/bin/ld: tplx.o: in function `gx_convert_texture_ia4_rgba':
/home/mrhan/projects/gcube/tplx.c:347: undefined reference to `color_unpack_ia4'
/usr/bin/ld: tplx.o: in function `gx_convert_texture_ia8_rgba':
/home/mrhan/projects/gcube/tplx.c:384: undefined reference to `color_unpack_ia8'
/usr/bin/ld: tplx.o: in function `gx_convert_texture_rgb565_rgba':
/home/mrhan/projects/gcube/tplx.c:421: undefined reference to `color_unpack_rgb565'
/usr/bin/ld: tplx.o: in function `gx_convert_texture_rgb5a3_rgba':
/home/mrhan/projects/gcube/tplx.c:458: undefined reference to `color_unpack_rgb5a3'
/usr/bin/ld: tplx.o: in function `gx_convert_texture_cmp_rgba':
/home/mrhan/projects/gcube/tplx.c:675: undefined reference to `color_unpack_rgb565'
/usr/bin/ld: /home/mrhan/projects/gcube/tplx.c:676: undefined reference to `color_unpack_rgb565'
/usr/bin/ld: tplx.o:/home/mrhan/projects/gcube/tplx.c:514: undefined reference to `color_unpack_ia8'
/usr/bin/ld: tplx.o:(.data.rel+0x8): undefined reference to `color_unpack_rgb565'
/usr/bin/ld: tplx.o:(.data.rel+0x10): undefined reference to `color_unpack_rgb5a3'
collect2: error: ld returned 1 exit status
make: *** [Makefile.rules:101: tplx] Error 1
